{
  "vendor": [
    "node_modules/normalize.css/normalize.css",

    "node_modules/jquery/dist/jquery.min.js",

    "node_modules/bootstrap/dist/css/bootstrap.css",
    "node_modules/bootstrap/dist/js/bootstrap.min.js",

    "node_modules/font-awesome/css/font-awesome.min.css",

    "node_modules/metismenu/dist/metisMenu.min.css",
    "node_modules/metismenu/dist/metisMenu.min.js",

    "node_modules/sb-admin-2/dist/css/sb-admin-2.min.css",
    "node_modules/sb-admin-2/dist/js/sb-admin-2.min.js",

    "src/AddOn/Datatable/asset/script.js",
    "src/AddOn/Datatable/asset/style.css",

    "src/AddOn/FlashMessage/asset/script.js",
    "src/AddOn/FlashMessage/asset/style.css",

    "src/AddOn/Snippet/asset/script.js"

  ],
  "atoms": [
    "base"
  ]
}
